<?xml version="1.0" encoding="UTF-8" standalone="no"?>
<!-- Created with Inkscape (http://www.inkscape.org/) -->

<svg
   xmlns:dc="http://purl.org/dc/elements/1.1/"
   xmlns:cc="http://creativecommons.org/ns#"
   xmlns:rdf="http://www.w3.org/1999/02/22-rdf-syntax-ns#"
   xmlns:svg="http://www.w3.org/2000/svg"
   xmlns="http://www.w3.org/2000/svg"
   xmlns:sodipodi="http://sodipodi.sourceforge.net/DTD/sodipodi-0.dtd"
   xmlns:inkscape="http://www.inkscape.org/namespaces/inkscape"
   width="24"
   height="24"
   viewBox="0 0 6.3499999 6.3500002"
   version="1.1"
   id="svg823"
   inkscape:version="0.92.4 (5da689c313, 2019-01-14)"
   sodipodi:docname="floppydisk2.svg">
  <defs
     id="defs817" />
  <sodipodi:namedview
     id="base"
     pagecolor="#ffffff"
     bordercolor="#666666"
     borderopacity="1.0"
     inkscape:pageopacity="0.0"
     inkscape:pageshadow="2"
     inkscape:zoom="15.839192"
     inkscape:cx="6.1872611"
     inkscape:cy="9.0004306"
     inkscape:document-units="mm"
     inkscape:current-layer="layer1"
     showgrid="false"
     units="px"
     inkscape:window-width="1866"
     inkscape:window-height="1025"
     inkscape:window-x="54"
     inkscape:window-y="27"
     inkscape:window-maximized="1" />
  <metadata
     id="metadata820">
    <rdf:RDF>
      <cc:Work
         rdf:about="">
        <dc:format>image/svg+xml</dc:format>
        <dc:type
           rdf:resource="http://purl.org/dc/dcmitype/StillImage" />
        <dc:title></dc:title>
      </cc:Work>
    </rdf:RDF>
  </metadata>
  <g
     inkscape:label="Calque 1"
     inkscape:groupmode="layer"
     id="layer1"
     transform="translate(0,-290.64998)">
    <path
       inkscape:connector-curvature="0"
       style="fill:#464a4c;stroke-width:0.01213995"
       id="path2"
       d="M 5.323321,290.92564 H 0.69559638 c -0.241367,0 -0.43703829,0.19567 -0.43703829,0.43703 v 4.98724 c 0,0.24136 0.19567129,0.43704 0.43703829,0.43704 H 5.6828331 c 0.2413662,0 0.4370383,-0.19568 0.4370383,-0.43704 v -4.33607 c 0,-0.0443 -0.013018,-0.0877 -0.037438,-0.12469 l -0.5679306,-0.86063 a 0.22906871,0.22906871 0 0 0 -0.1911802,-0.10288 z" />
    <path
       inkscape:connector-curvature="0"
       style="fill:#ededed;stroke-width:0.01213995"
       id="path4"
       d="m 1.5175435,293.6558 h 3.3433426 c 0.1930974,0 0.3496303,0.15654 0.3496303,0.34963 v 2.0171 c 0,0.19311 -0.1565329,0.34964 -0.3496303,0.34964 H 1.5175435 c -0.1930983,0 -0.3496304,-0.15653 -0.3496304,-0.34964 v -2.0171 c 0,-0.19309 0.1565321,-0.34963 0.3496304,-0.34963 z" />
    <path
       inkscape:connector-curvature="0"
       style="fill:#ededed;stroke-width:0.01213995"
       id="path6"
       d="m 3.1074402,291.30014 h 1.9425251 c 0.096549,0 0.1748152,0.0783 0.1748152,0.17482 v 1.62655 c 0,0.0965 -0.07827,0.17481 -0.1748152,0.17481 H 3.1074402 c -0.096549,0 -0.174816,-0.0783 -0.174816,-0.17481 v -1.62655 c 0,-0.0965 0.07827,-0.17482 0.174816,-0.17482 z" />
    <path
       inkscape:connector-curvature="0"
       style="fill:#59cafc;stroke-width:0.01213995"
       id="path8"
       d="m 5.2105164,294.32254 v -0.31711 c 0,-0.19309 -0.1387845,-0.34963 -0.3099943,-0.34963 H 1.4779066 c -0.1711974,0 -0.3099935,0.15654 -0.3099935,0.34963 v 0.31711 z" />
    <path
       inkscape:connector-curvature="0"
       style="fill:#132028;stroke-width:0.01213995"
       id="path10"
       d="M 4.8810625,293.03308 H 4.5187334 a 0.08740764,0.08740764 0 0 1 -0.087408,-0.0874 v -1.31489 a 0.08740764,0.08740764 0 0 1 0.087408,-0.0874 h 0.3623291 a 0.08740764,0.08740764 0 0 1 0.087408,0.0874 v 1.31489 a 0.08741978,0.08741978 0 0 1 -0.087408,0.0874 z" />
  </g>
</svg>
