<?xml version="1.0" encoding="UTF-8" standalone="no"?>
<!-- Created with Inkscape (http://www.inkscape.org/) -->

<svg
   xmlns:dc="http://purl.org/dc/elements/1.1/"
   xmlns:cc="http://creativecommons.org/ns#"
   xmlns:rdf="http://www.w3.org/1999/02/22-rdf-syntax-ns#"
   xmlns:svg="http://www.w3.org/2000/svg"
   xmlns="http://www.w3.org/2000/svg"
   xmlns:sodipodi="http://sodipodi.sourceforge.net/DTD/sodipodi-0.dtd"
   xmlns:inkscape="http://www.inkscape.org/namespaces/inkscape"
   width="8.5019445mm"
   height="8.5019445mm"
   viewBox="0 0 8.5019443 8.5019443"
   version="1.1"
   id="svg8295"
   inkscape:version="0.92.4 (5da689c313, 2019-01-14)"
   sodipodi:docname="integrate-to-dt-mz-check-button.svg">
  <defs
     id="defs8289">
    <marker
       inkscape:isstock="true"
       style="overflow:visible"
       id="Arrow1Send"
       refX="0"
       refY="0"
       orient="auto"
       inkscape:stockid="Arrow1Send">
      <path
         inkscape:connector-curvature="0"
         transform="matrix(-0.2,0,0,-0.2,-1.2,0)"
         style="fill:#f7fc00;fill-opacity:1;fill-rule:evenodd;stroke:#f7fc00;stroke-width:1.00000003pt;stroke-opacity:1"
         d="M 0,0 5,-5 -12.5,0 5,5 Z"
         id="path1940" />
    </marker>
    <marker
       inkscape:isstock="true"
       style="overflow:visible"
       id="marker5261"
       refX="0"
       refY="0"
       orient="auto"
       inkscape:stockid="Arrow1Mend">
      <path
         inkscape:connector-curvature="0"
         transform="matrix(-0.4,0,0,-0.4,-4,0)"
         style="fill:#f7fc00;fill-opacity:1;fill-rule:evenodd;stroke:#f7fc00;stroke-width:1.00000003pt;stroke-opacity:1"
         d="M 0,0 5,-5 -12.5,0 5,5 Z"
         id="path5259" />
    </marker>
    <marker
       inkscape:collect="always"
       inkscape:stockid="Arrow1Mend"
       orient="auto"
       refY="0"
       refX="0"
       id="marker4205"
       style="overflow:visible"
       inkscape:isstock="true">
      <path
         inkscape:connector-curvature="0"
         id="path4203"
         d="M 0,0 5,-5 -12.5,0 5,5 Z"
         style="fill:#f7fc00;fill-opacity:1;fill-rule:evenodd;stroke:#f7fc00;stroke-width:1.00000003pt;stroke-opacity:1"
         transform="matrix(-0.4,0,0,-0.4,-4,0)" />
    </marker>
  </defs>
  <sodipodi:namedview
     id="base"
     pagecolor="#ffffff"
     bordercolor="#666666"
     borderopacity="1.0"
     inkscape:pageopacity="0.0"
     inkscape:pageshadow="2"
     inkscape:zoom="2.8982456"
     inkscape:cx="-34.241756"
     inkscape:cy="18.1839"
     inkscape:document-units="mm"
     inkscape:current-layer="layer1"
     showgrid="false"
     fit-margin-top="0"
     fit-margin-left="0"
     fit-margin-right="0"
     fit-margin-bottom="0" />
  <metadata
     id="metadata8292">
    <rdf:RDF>
      <cc:Work
         rdf:about="">
        <dc:format>image/svg+xml</dc:format>
        <dc:type
           rdf:resource="http://purl.org/dc/dcmitype/StillImage" />
        <dc:title></dc:title>
      </cc:Work>
    </rdf:RDF>
  </metadata>
  <g
     inkscape:label="Layer 1"
     inkscape:groupmode="layer"
     id="layer1"
     transform="translate(-94.915321,-118.1414)">
    <g
       id="g6259"
       inkscape:export-xdpi="95.599998"
       inkscape:export-ydpi="95.599998"
       transform="matrix(0.26458333,0,0,0.26458333,25.443202,73.087426)">
      <rect
         style="opacity:1;fill:#000000;fill-opacity:1;fill-rule:nonzero;stroke:#ffce00;stroke-width:0.13333333;stroke-linecap:round;stroke-linejoin:round;stroke-miterlimit:4;stroke-dasharray:none;stroke-dashoffset:0;stroke-opacity:1;paint-order:markers stroke fill"
         id="rect1005"
         width="32"
         height="32"
         x="262.63846"
         y="170.3494"
         inkscape:export-xdpi="95.599998"
         inkscape:export-ydpi="95.599998" />
      <text
         xml:space="preserve"
         style="font-style:normal;font-weight:normal;font-size:14.58878326px;line-height:9.11799145px;font-family:'Bitstream Vera Sans';letter-spacing:0px;word-spacing:0px;fill:#faff00;fill-opacity:0.98660715;stroke:#f7fc00;stroke-width:0.36471966px;stroke-linecap:butt;stroke-linejoin:miter;stroke-opacity:1"
         x="270.93271"
         y="182.41632"
         id="text1009"
         inkscape:export-xdpi="95.599998"
         inkscape:export-ydpi="95.599998"><tspan
           sodipodi:role="line"
           id="tspan1007"
           x="270.93271"
           y="182.41632"
           style="fill:#faff00;fill-opacity:0.98660715;stroke:#f7fc00;stroke-width:0.36471966px;stroke-opacity:1">MZ</tspan></text>
      <path
         sodipodi:nodetypes="cc"
         style="fill:#f7fc00;fill-opacity:1;fill-rule:evenodd;stroke:#f7fc00;stroke-width:1.5;stroke-linecap:butt;stroke-linejoin:miter;stroke-miterlimit:4;stroke-dasharray:none;stroke-opacity:1;marker-end:url(#marker5261)"
         d="m 266.01932,198.37202 h 25.31754"
         id="path1011"
         inkscape:connector-curvature="0"
         inkscape:export-xdpi="95.599998"
         inkscape:export-ydpi="95.599998" />
      <text
         id="text1019"
         y="194.35873"
         x="270.96863"
         style="font-style:normal;font-weight:normal;font-size:14.58878422px;line-height:9.11799049px;font-family:'Bitstream Vera Sans';letter-spacing:0px;word-spacing:0px;fill:#f7fc00;fill-opacity:1;stroke:#f7fc00;stroke-width:0.36471963px;stroke-linecap:butt;stroke-linejoin:miter;stroke-opacity:1"
         xml:space="preserve"
         inkscape:export-xdpi="95.599998"
         inkscape:export-ydpi="95.599998"><tspan
           style="fill:#f7fc00;fill-opacity:1;stroke:#f7fc00;stroke-width:0.36471963px;stroke-opacity:1"
           y="194.35873"
           x="270.96863"
           id="tspan1017"
           sodipodi:role="line">DT</tspan></text>
      <path
         sodipodi:nodetypes="cc"
         inkscape:connector-curvature="0"
         id="path1021"
         d="M 266.69886,198.91449 V 173.8662"
         style="fill:#f7fc00;fill-opacity:1;fill-rule:evenodd;stroke:#f7fc00;stroke-width:1.5;stroke-linecap:butt;stroke-linejoin:miter;stroke-miterlimit:4;stroke-dasharray:none;stroke-opacity:1;marker-end:url(#marker4205)"
         inkscape:export-xdpi="95.599998"
         inkscape:export-ydpi="95.599998" />
    </g>
  </g>
</svg>
