<?xml version="1.0" encoding="UTF-8" standalone="no"?>
<!-- Created with Inkscape (http://www.inkscape.org/) -->

<svg
   xmlns:dc="http://purl.org/dc/elements/1.1/"
   xmlns:cc="http://creativecommons.org/ns#"
   xmlns:rdf="http://www.w3.org/1999/02/22-rdf-syntax-ns#"
   xmlns:svg="http://www.w3.org/2000/svg"
   xmlns="http://www.w3.org/2000/svg"
   xmlns:sodipodi="http://sodipodi.sourceforge.net/DTD/sodipodi-0.dtd"
   xmlns:inkscape="http://www.inkscape.org/namespaces/inkscape"
   width="24px"
   height="24px"
   viewBox="0 0 24 24"
   version="1.1"
   id="SVGRoot"
   inkscape:version="0.92.4 (5da689c313, 2019-01-14)"
   sodipodi:docname="file_export.svg">
  <defs
     id="defs838">
    <clipPath
       id="clipPath889"
       clipPathUnits="userSpaceOnUse">
      <rect
         clip-path="none"
         transform="matrix(0.68861325,0.72512881,-0.72175914,0.69214431,0,0)"
         y="-12.982246"
         x="21.180639"
         height="7.5451527"
         width="8.752655"
         id="rect891"
         style="opacity:1;fill:#d53232;fill-opacity:0.25242722;fill-rule:nonzero;stroke:none;stroke-width:0;stroke-linecap:round;stroke-linejoin:round;stroke-miterlimit:4;stroke-dasharray:none;stroke-opacity:1;paint-order:normal" />
    </clipPath>
  </defs>
  <sodipodi:namedview
     id="base"
     pagecolor="#ffffff"
     bordercolor="#666666"
     borderopacity="1.0"
     inkscape:pageopacity="0.0"
     inkscape:pageshadow="2"
     inkscape:zoom="15.084945"
     inkscape:cx="-0.63638665"
     inkscape:cy="10.058232"
     inkscape:document-units="px"
     inkscape:current-layer="layer1"
     showgrid="false"
     inkscape:window-width="1866"
     inkscape:window-height="1025"
     inkscape:window-x="54"
     inkscape:window-y="27"
     inkscape:window-maximized="1"
     inkscape:grid-bbox="true"
     showguides="true"
     inkscape:guide-bbox="true">
    <inkscape:grid
       type="xygrid"
       id="grid822" />
    <sodipodi:guide
       position="15.621543,17.311615"
       orientation="0,1"
       id="guide824"
       inkscape:locked="false" />
  </sodipodi:namedview>
  <metadata
     id="metadata841">
    <rdf:RDF>
      <cc:Work
         rdf:about="">
        <dc:format>image/svg+xml</dc:format>
        <dc:type
           rdf:resource="http://purl.org/dc/dcmitype/StillImage" />
        <dc:title />
      </cc:Work>
    </rdf:RDF>
  </metadata>
  <g
     inkscape:label="Calque 1"
     inkscape:groupmode="layer"
     id="layer1">
    <path
       style="display:inline;fill:#ffffff;fill-opacity:1;stroke:#323232;stroke-width:1.253;stroke-linecap:butt;stroke-linejoin:round;stroke-miterlimit:4;stroke-dasharray:none;stroke-opacity:1"
       d="M 1.9367032,2.3676211 V 21.505364 H 15.563701 L 15.621543,6.6883848 11.804905,2.3071362 Z"
       id="path855"
       inkscape:connector-curvature="0" />
    <rect
       style="display:inline;opacity:1;fill:#323132;fill-opacity:1;fill-rule:nonzero;stroke:#ffffff;stroke-width:0.56408358;stroke-linecap:round;stroke-linejoin:round;stroke-miterlimit:4;stroke-dasharray:none;stroke-opacity:1;paint-order:normal"
       id="rect898"
       width="13.781968"
       height="2.0607855"
       x="7.8117404"
       y="13.466157"
       rx="0.87919444"
       ry="0.74122602" />
    <rect
       style="display:inline;opacity:1;fill:#323232;fill-opacity:1;fill-rule:nonzero;stroke:none;stroke-width:0.61894029;stroke-linecap:round;stroke-linejoin:round;stroke-miterlimit:4;stroke-dasharray:none;stroke-opacity:1;paint-order:normal"
       id="rect1299"
       width="5.606513"
       height="1.3667769"
       x="20.619522"
       y="-4.0282269"
       rx="0.5335573"
       ry="0.46998933"
       transform="matrix(0.76058237,0.64924144,-0.77322432,0.6341326,0,0)" />
    <rect
       style="display:inline;opacity:1;fill:#323232;fill-opacity:1;fill-rule:nonzero;stroke:none;stroke-width:0.61893243;stroke-linecap:round;stroke-linejoin:round;stroke-miterlimit:4;stroke-dasharray:none;stroke-opacity:1;paint-order:normal"
       id="rect1299-9"
       width="5.5940084"
       height="1.3697976"
       x="-2.4441147"
       y="25.124758"
       rx="0.53236711"
       ry="0.47102797"
       transform="matrix(0.75243053,-0.65867161,0.78097964,0.62455648,0,0)" />
    <path
       style="fill:#323232;stroke:#323232;stroke-width:1.253;stroke-linecap:butt;stroke-linejoin:round;stroke-opacity:1;stroke-miterlimit:4;stroke-dasharray:none;fill-opacity:1"
       d="M 11.804905,2.3071362 V 6.688385 h 3.823259 z"
       id="path826"
       inkscape:connector-curvature="0" />
  </g>
</svg>
