<?xml version="1.0" encoding="UTF-8" standalone="no"?>
<!-- Created with Inkscape (http://www.inkscape.org/) -->

<svg
   xmlns:dc="http://purl.org/dc/elements/1.1/"
   xmlns:cc="http://creativecommons.org/ns#"
   xmlns:rdf="http://www.w3.org/1999/02/22-rdf-syntax-ns#"
   xmlns:svg="http://www.w3.org/2000/svg"
   xmlns="http://www.w3.org/2000/svg"
   xmlns:sodipodi="http://sodipodi.sourceforge.net/DTD/sodipodi-0.dtd"
   xmlns:inkscape="http://www.inkscape.org/namespaces/inkscape"
   width="24px"
   height="24px"
   viewBox="0 0 24 24"
   version="1.1"
   id="SVGRoot"
   inkscape:version="0.92.4 (5da689c313, 2019-01-14)"
   sodipodi:docname="tab-new.svg">
  <defs
     id="defs845">
    <inkscape:path-effect
       effect="bspline"
       id="path-effect876"
       is_visible="true"
       weight="33.333333"
       steps="2"
       helper_size="0"
       apply_no_weight="true"
       apply_with_weight="true"
       only_selected="false" />
    <inkscape:path-effect
       only_selected="false"
       apply_with_weight="true"
       apply_no_weight="true"
       helper_size="0"
       steps="2"
       weight="33.333333"
       is_visible="true"
       id="path-effect880"
       effect="bspline" />
  </defs>
  <sodipodi:namedview
     id="base"
     pagecolor="#ffffff"
     bordercolor="#666666"
     borderopacity="1.0"
     inkscape:pageopacity="0.0"
     inkscape:pageshadow="2"
     inkscape:zoom="85.333333"
     inkscape:cx="11.810034"
     inkscape:cy="11.669267"
     inkscape:document-units="px"
     inkscape:current-layer="layer1"
     showgrid="false"
     inkscape:window-width="1866"
     inkscape:window-height="1025"
     inkscape:window-x="54"
     inkscape:window-y="27"
     inkscape:window-maximized="1"
     inkscape:grid-bbox="true" />
  <metadata
     id="metadata848">
    <rdf:RDF>
      <cc:Work
         rdf:about="">
        <dc:format>image/svg+xml</dc:format>
        <dc:type
           rdf:resource="http://purl.org/dc/dcmitype/StillImage" />
        <dc:title></dc:title>
      </cc:Work>
    </rdf:RDF>
  </metadata>
  <g
     inkscape:label="Calque 1"
     inkscape:groupmode="layer"
     id="layer1">
    <rect
       style="display:inline;opacity:1;fill:#323232;fill-opacity:1;fill-rule:nonzero;stroke:none;stroke-width:0;stroke-linecap:round;stroke-linejoin:round;stroke-miterlimit:4;stroke-dasharray:none;stroke-opacity:1;paint-order:normal"
       id="rect828"
       width="17.666231"
       height="15.306556"
       x="3.120312"
       y="5.2577119"
       rx="2.4622653"
       ry="2.0405869" />
    <rect
       style="display:inline;opacity:1;fill:#323232;fill-opacity:1;fill-rule:nonzero;stroke:none;stroke-width:0;stroke-linecap:round;stroke-linejoin:round;stroke-miterlimit:4;stroke-dasharray:none;stroke-opacity:1;paint-order:normal"
       id="rect868"
       width="23.462603"
       height="2.9328253"
       x="0.21541905"
       y="17.659372"
       rx="0"
       ry="0" />
    <g
       transform="matrix(1.4664127,0,0,1.4664127,0.21541912,0.06242007)"
       id="g903"
       style="display:inline;fill:#323232;fill-opacity:1">
      <path
         sodipodi:nodetypes="ccccccccc"
         inkscape:original-d="m 1.984375,10.542969 c 0,0 10e-4,0.964146 0,1.449219 -0.5600549,0.0016 -1.11879166,0.0042 -1.6796875,0.0078 0.003609,-0.0036 0.006208,-0.0062 0.007813,-0.0078 -0.002208,0.06958 -0.015625,0.34375 -0.015625,0.34375 L 8,12.378789 v -1.769265 l -6.015622,-0.06656 z"
         inkscape:path-effect="#path-effect876"
         inkscape:connector-curvature="0"
         id="path874"
         d="m 1.984375,10.542969 c 0,0.483073 0,0.964146 -0.2800251,1.207983 -0.2800252,0.243837 -0.83876194,0.246431 -1.11740842,0.245933 -0.27864648,-4.98e-4 -0.27604482,-0.0031 -0.27682328,0.03087 -7.7846e-4,0.03397 -0.008034,0.193598 -0.0132427,0.308181 0,0 7.7031245,0.04285 7.7031245,0.04285 0,0 0,-1.769265 0,-1.769265 0,0 -6.015622,-0.06656 -6.015622,-0.06656 0,0 -3e-6,5e-6 -3e-6,5e-6 z"
         style="fill:#323232;fill-opacity:1;stroke:none;stroke-width:1px;stroke-linecap:butt;stroke-linejoin:miter;stroke-opacity:1" />
      <path
         transform="matrix(-1,0,0,1,16,0)"
         style="fill:#323232;fill-opacity:1;stroke:none;stroke-width:1px;stroke-linecap:butt;stroke-linejoin:miter;stroke-opacity:1"
         d="m 1.984375,10.542969 c 0,0.483073 0,0.964146 -0.2800251,1.207983 -0.2800252,0.243837 -0.83876194,0.246431 -1.11740842,0.245933 -0.27864648,-4.98e-4 -0.27604482,-0.0031 -0.27682328,0.03087 -7.7846e-4,0.03397 -0.008034,0.193598 -0.0132427,0.308181 0,0 7.7031245,0.04285 7.7031245,0.04285 0,0 0,-1.769265 0,-1.769265 0,0 -6.015622,-0.06656 -6.015622,-0.06656 0,0 -3e-6,5e-6 -3e-6,5e-6 z"
         id="path878"
         inkscape:connector-curvature="0"
         inkscape:path-effect="#path-effect880"
         inkscape:original-d="m 1.984375,10.542969 c 0,0 10e-4,0.964146 0,1.449219 -0.5600549,0.0016 -1.11879166,0.0042 -1.6796875,0.0078 0.003609,-0.0036 0.006208,-0.0062 0.007813,-0.0078 -0.002208,0.06958 -0.015625,0.34375 -0.015625,0.34375 L 8,12.378789 v -1.769265 l -6.015622,-0.06656 z"
         sodipodi:nodetypes="ccccccccc" />
    </g>
    <rect
       ry="0"
       rx="0"
       y="8.1657896"
       x="-13.413133"
       height="8.7984762"
       width="1.4664127"
       id="rect890"
       style="display:inline;opacity:1;fill:#ffffff;fill-opacity:1;fill-rule:nonzero;stroke:none;stroke-width:0;stroke-linecap:round;stroke-linejoin:round;stroke-miterlimit:4;stroke-dasharray:none;stroke-opacity:1;paint-order:normal"
       transform="scale(-1,1)" />
    <rect
       y="11.097989"
       x="-16.345959"
       height="2.9328253"
       width="4.3992376"
       id="rect892"
       style="display:inline;opacity:1;fill:#ffffff;fill-opacity:1;fill-rule:nonzero;stroke:none;stroke-width:0;stroke-linecap:round;stroke-linejoin:round;stroke-miterlimit:4;stroke-dasharray:none;stroke-opacity:1;paint-order:normal"
       transform="scale(-1,1)" />
    <rect
       style="display:inline;opacity:1;fill:#ffffff;fill-opacity:1;fill-rule:nonzero;stroke:none;stroke-width:0;stroke-linecap:round;stroke-linejoin:round;stroke-miterlimit:4;stroke-dasharray:none;stroke-opacity:1;paint-order:normal"
       id="rect882"
       width="1.7828189"
       height="8.7984762"
       x="10.480308"
       y="8.1657896"
       rx="0"
       ry="0" />
    <rect
       style="display:inline;opacity:1;fill:#ffffff;fill-opacity:1;fill-rule:nonzero;stroke:none;stroke-width:0;stroke-linecap:round;stroke-linejoin:round;stroke-miterlimit:4;stroke-dasharray:none;stroke-opacity:1;paint-order:normal"
       id="rect884"
       width="4.3992376"
       height="2.9328253"
       x="7.5474825"
       y="11.097989" />
  </g>
</svg>
